<svg xmlns="http://www.w3.org/2000/svg" width="22" height="36.251" viewBox="0 0 22 36.251">
  <path id="chevron-right-solid" d="M48.911,57.192,32.777,73.325a1.992,1.992,0,0,1-2.818,0l-1.882-1.882a1.992,1.992,0,0,1,0-2.814L40.861,55.783,28.075,42.937a1.992,1.992,0,0,1,0-2.814l1.882-1.882a1.992,1.992,0,0,1,2.818,0L48.911,54.374A1.992,1.992,0,0,1,48.911,57.192Z" transform="translate(-27.495 -37.657)" fill="#fff"/>
</svg>
